Version: 1
Frame: ObjectiveTrackerFrame
FrameLevel: 1
Anchor: RIGHT
X: 5
Y: 65
W: 235
H: 400
Frame: PlayerPowerBarAlt
FrameLevel: 2
Anchor: TOP
X: 3
Y: -5
W: 10
H: 10
Frame: SpellBookFrame
FrameLevel: 1
Anchor: TOPLEFT
X: 16
Y: -116
W: 550
H: 525
Frame: CharacterFrame
FrameLevel: 1
Anchor: CENTER
X: -208
Y: 152
W: 444
H: 444
Frame: QuestFrame
FrameLevel: 1
Anchor: TOPLEFT
X: 16
Y: -116
W: 338
H: 496
Frame: MerchantFrame
FrameLevel: 1
Anchor: TOPLEFT
X: 16
Y: -116
W: 359
H: 444
Frame: TradeFrame
FrameLevel: 1
Anchor: TOPLEFT
X: 409
Y: -119
W: 344
H: 446
Frame: ItemRefTooltip
FrameLevel: 1
Anchor: BOTTOM
X: -182
Y: 96
W: 128
H: 64
Frame: ColorPickerFrame
FrameLevel: 23
Anchor: CENTER
X: -158
Y: 35
W: 365
H: 380
Frame: GossipFrame
FrameLevel: 1
Anchor: TOPLEFT
X: 16
Y: -116
W: 338
H: 496
Frame: TradeSkillFrame
FrameLevel: 1
Anchor: CENTER
X: -141
Y: 127
W: 670
H: 507
Frame: ReadyCheckFrame
FrameLevel: 1
Anchor: CENTER
X: 11
Y: -123
W: 323
H: 100
Frame: FriendsFrame
FrameLevel: 1
Anchor: TOP
X: -381
Y: -158
W: 338
H: 424
Frame: CommunitiesFrame
FrameLevel: 1
Anchor: TOP
X: 196
Y: -159
W: 814
H: 426
Frame: GameMenuFrame
FrameLevel: 1
Anchor: CENTER
X: 19
Y: 19
W: 195
H: 348
